{
  "name": "Condition",
  "plural": "conditions",
  "base": "PersistedModel",
  "idInjection": true,
  "options": {
    "validateUpsert": true
  },
  "properties": {
    "sourceProperty": {
      "type": "string",
      "required": true,
      "default": "value"
    },
    "sourceType": {
      "type": "string",
      "required": true,
      "default": "String"
    },
    "operator": {
      "type": "string",
      "required": true
    },
    "compareValue": {
      "type": "string",
      "required": true
    }
  },
  "validations": [],
  "relations": {},
  "acls": [],
  "methods": {}
}
